
G21
G90
G94
F300.00
G00 Z2.0000
M03
G00 X-0.2250Y52.6500
G01 Z-2.0000
G01 X-0.2250Y-0.2250
G01 X61.2250Y-0.2250
G01 X61.2250Y52.6500
G00 Z2.0000
G00 X61.2250Y54.0500
G01 Z-2.0000
G01 X61.2250Y106.9250
G01 X-0.2250Y106.9250
G01 X-0.2250Y54.0500
G00 Z2.0000
G00 Z2.0000
G00 X0Y0
M05
M30